<svg width="16" height="16" viewBox="0 0 16 16" fill="none" xmlns="http://www.w3.org/2000/svg">
<path d="M6 4.99998H3.39C4.03667 4.00614 4.98721 3.24789 6.09991 2.83827C7.21261 2.42864 8.4279 2.38957 9.56462 2.72687C10.7013 3.06418 11.6986 3.7598 12.4078 4.71004C13.117 5.66029 13.5001 6.81427 13.5 7.99998H14.5C14.5014 6.66272 14.0903 5.35759 13.3227 4.26253C12.5552 3.16748 11.4686 2.3358 10.2111 1.88091C8.95358 1.42602 7.58637 1.37006 6.29589 1.72065C5.00541 2.07124 3.85447 2.81132 3 3.83998V1.99998H2V5.99998H6V4.99998Z" fill="black"/>
<path d="M10 11H12.61C11.9633 11.9938 11.0128 12.7521 9.90009 13.1617C8.78739 13.5713 7.5721 13.6104 6.43539 13.2731C5.29867 12.9358 4.30139 12.2402 3.59221 11.2899C2.88303 10.3397 2.49993 9.18571 2.5 8H1.5C1.49863 9.33726 1.90973 10.6424 2.67727 11.7374C3.4448 12.8325 4.53141 13.6642 5.78892 14.1191C7.04642 14.574 8.41363 14.6299 9.70411 14.2793C10.9946 13.9287 12.1455 13.1887 13 12.16V14H14V10H10V11Z" fill="black"/>
</svg>
